7263 5120 262
1656 9031 262
2884 7526 262
9171 3193 262
5745 3934 236
5413 2144 238
685 6440 262
5561 7760 262
7985 4838 262
6280 2734 262
8465 2210 262
1751 6064 238
3714 7934 262
3780 2292 238
1757 422 182
2537 141 209
8654 7074 252
8027 4039 262
9689 583 262
4322 6764 262
2586 5150 238
9508 5887 262
4487 9548 262
3792 6501 262
9140 4464 262
9236 7523 252
4531 6988 262
220 9395 262
9942 8523 260
1624 2816 209
7394 7232 208
5304 7217 262
8418 4991 262
9254 3667 262
9413 7573 260
2560 7646 262
5573 9969 262
1969 4041 238
8693 8806 216
3820 9514 262
7654 873 262
1076 9366 262
294 2085 182
9018 1270 262
8917 9758 260
3411 6634 262
8949 2050 262
1285 2007 180
1566 2379 183
1903 3037 217
4012 6098 236
6995 2276 262
4390 1021 238
7888 8788 252
4187 3065 238
3424 5907 238
9450 4979 262
9802 8264 260
7966 7696 252
7157 8863 252
7860 9468 260
2683 2566 191
9515 7791 260
421 8244 262
2887 1836 209
8600 3945 262
5618 8595 262
1532 6177 262
2928 9574 262
2581 8370 262
637 8377 262
3328 1796 217
3237 2850 217
1244 5504 238
5151 9200 262
8802 8449 216
7607 8072 252
2722 2600 191
4183 987 238
9611 9579 167
7873 163 262
3831 6269 262
6811 2220 262
225 601 144
2840 9855 262
7972 1480 262
1583 5258 238
7617 7010 239
6314 9883 260
2364 3521 217
797 507 171
3476 5696 238
8801 6104 262
4509 1651 238
2908 9226 262
2764 1313 209
2575 8823 262
30 7291 262
2236 2049 183
6693 1920 262
6001 3341 238
4928 3257 238
6134 1760 238
9622 5664 262
9406 8642 260
383 1086 179
2333 4196 238
9279 3393 262
1559 7069 262
720 9724 262
209 7200 262
8987 4328 262
3398 2729 217
786 7129 262
3128 6327 262
1805 5035 238
5009 6596 262
8911 7307 252
2868 654 209
1588 4194 238
6805 2874 262
729 780 153
402 287 144
5960 4919 236
6781 3965 262
6655 5719 262
9607 3185 262
9116 918 262
7578 7904 221
3527 5721 238
8594 3264 262
6028 7773 262
4474 3670 238
8867 4864 262
351 4314 238
8046 8669 234
2707 6264 262
1870 4607 238
320 6271 262
1939 7862 262
4710 316 238
4382 6344 262
195 2241 183
9572 4446 262
6302 5582 262
5537 6863 262
9936 6241 260
9094 2827 262
5760 1242 238
4850 5389 210
