1 10 20
11 20 21
50 50 25
100 200 125
201 210 89
900 1000 174
1000 900 174
660074 565980 509
82927 654415 509
259521 678950 509
917640 16496 525
413773 656044 509
545964 566432 452
396713 755233 509
362169 884991 525
345811 847788 525
239111 234424 350
419882 538555 470
228404 217627 368
654782 290897 509
726865 30258 509
30508 922559 525
142695 524088 470
498495 50605 449
845855 652430 525
234540 806755 509
719325 252260 509
180592 418845 449
941391 532694 525
17806 59814 340
723853 85761 509
73538 702528 509
607010 712972 509
306637 586918 470
569515 869950 525
438169 305323 449
649657 71443 509
498868 442585 444
994362 170326 525
549931 169376 470
253183 26725 443
100366 180373 383
16770 717216 509
791990 893347 525
562791 99045 470
252243 880859 525
516996 240658 470
625342 93195 470
163106 957314 525
183918 549326 470
42418 449393 449
596104 822098 509
172509 831010 509
877168 824521 525
684136 157864 509
790123 115925 509
926410 415772 525
476342 189941 449
122568 815133 509
395080 980664 525
472092 651614 509
229881 129009 386
189720 939619 525
280219 388213 441
347808 2666 443
998308 915573 507
545768 213566 470
753882 96937 509
368768 117346 443
613838 981128 525
317611 241148 407
908988 363397 525
392679 997871 525
626773 50157 509
797069 224113 509
216630 861668 525
287503 58012 443
223830 485017 449
546354 58874 470
277923 376632 441
574065 698002 509
353560 531753 470
508495 608958 470
894285 87676 525
466199 275496 449
344018 408272 441
970357 156714 525
866284 509180 525
281065 601504 470
547838 426252 470
475920 288180 449
181226 404216 443
442297 340179 449
799865 588228 509
37468 715039 509
499631 237856 449
548650 941398 525
722511 351231 509
242348 787534 509
100746 986500 525
230784 985010 525
163976 498398 449
102957 702286 509
697271 369628 509
768864 65683 509
304510 309969 371
747605 658892 504
779439 820378 468
693608 597239 509
215847 475058 449
299916 469225 449
398605 761371 509
843454 165392 525
908995 435620 525
544430 373341 470
550512 2169 470
600502 307798 470
155516 104008 375
226048 65886 386
568382 324787 470
277884 850307 525
617463 145538 470
80982 186935 383
185986 573660 470
881211 178349 525
71127 267465 443
946876 781138 525
180860 816469 509
716773 72330 509
759758 205763 509
549740 479106 470
757811 392244 509
569125 985978 525
160394 351136 443
815355 404928 509
82877 913128 525
420731 896509 525
699992 205656 509
802823 63728 509
627893 536233 509
936319 105552 525
205971 111428 383
607886 713175 509
235822 71976 443
184598 619720 470
126370 942702 525
833707 972841 525
67012 745313 509
320001 989731 525
804735 702826 504
476739 675322 509
836517 676266 504
197101 737008 509
344923 217458 443
325353 213026 443
2663 396161 443
140365 746632 509
850965 365424 525
218884 884536 525
816999 965980 525
341902 255582 407
77143 538661 470
764736 994443 525
395791 513220 470
609849 315153 470
773442 272609 509
361226 710577 509
223220 253689 443
440067 856464 525
261531 238498 368
623789 932518 525
746438 314625 509
633798 737956 504
26435 38906 324
562246 675314 509
972639 925554 507
933931 403800 525
359042 498020 449
106743 722294 509
228296 793290 509
402542 32101 443
334614 387977 441
830053 550900 509
490731 727489 509
512371 301825 470
662448 782724 504
963881 785431 525
952163 833149 525
174867 157337 370
191855 480776 449
56831 680606 509
726397 836484 468
177491 199477 365
109598 188289 383
871693 389866 525
858309 360555 525
752903 582052 509
113959 403861 443
369706 22302 443
46282 217081 386
252708 542681 470
100585 196457 383
879445 742129 525
737749 30830 509
148412 946877 525
145270 317863 443
