870141 544650 525
955375 364774 525
193808 28181 383
713839 268907 509
67764 95568 351
416617 81736 449
361348 498402 449
41727 871517 525
579288 74880 470
919691 273834 525
863652 890936 445
352812 504216 449
18127 318114 443
556322 9926 470
118461 47002 354
444101 153443 449
173375 142599 383
773897 691407 504
750348 984437 525
933179 981147 507
589015 798634 509
564361 616255 447
108645 378994 443
248357 817334 509
483749 664409 509
650554 385043 509
554168 543530 452
495895 491686 426
577545 737347 509
512363 250930 470
100197 976751 525
424865 254853 449
294914 251278 407
614775 891595 525
51146 143305 375
413056 16602 449
681676 581644 509
145357 233662 443
589574 86538 470
199727 249412 443
191226 784948 509
44910 106557 354
209046 262571 443
215770 985539 525
54026 687651 509
486558 419887 444
860122 298817 525
963369 23416 525
344258 183728 443
421569 607540 470
816624 882182 525
996863 751957 525
900160 131581 525
689763 884210 525
297855 54073 443
595394 307687 470
835997 687465 504
141848 171702 383
979370 196516 525
77031 478524 449
378253 958202 525
794177 868407 525
347129 103651 443
926890 258976 525
932311 499033 525
34537 226849 386
593902 309229 470
313711 468577 449
626530 784136 504
554719 467086 470
580301 274508 470
898400 203531 525
290822 681721 509
458839 131526 449
187104 321555 443
706150 40098 509
908500 311087 525
844206 738346 525
895853 32172 525
924296 40188 525
806740 584262 509
797529 17400 509
132534 774637 509
648627 852345 525
926814 196080 525
880675 838305 432
834128 941133 525
248964 25177 443
408878 387952 436
424497 694298 509
7220 507670 449
455723 434587 400
70129 210095 383
844309 74838 525
676788 578840 509
398547 585638 470
231923 498482 449
4819 971331 525
230472 845277 525
811189 448796 509
473448 330988 449
908894 595914 525
603809 575517 434
373495 419147 449
119899 944376 525
219098 648925 509
692721 160030 509
625473 677298 509
808754 242358 509
572337 180790 470
598457 815986 509
714312 618509 509
349897 563103 470
867783 800663 525
89926 570760 470
986224 190045 525
658858 889277 525
80360 570375 470
401152 844396 525
310994 175201 443
927430 897365 476
751704 685128 504
323175 213917 443
625729 299818 470
407239 558921 470
134202 837314 509
293672 829202 509
895252 780659 525
926576 290320 525
665761 958146 525
268090 646247 509
594806 192623 470
497642 318601 449
445087 88656 449
474620 277411 449

